<svg width="28" height="24" viewBox="0 0 28 24" fill="none" xmlns="http://www.w3.org/2000/svg">
<path fill-rule="evenodd" clip-rule="evenodd" d="M10.1679 4C10.7599 1.6997 12.8481 0 15.3332 0C18.2787 0 20.6665 2.38781 20.6665 5.33333C20.6665 8.27885 18.2787 10.6667 15.3332 10.6667C12.8481 10.6667 10.7599 8.96697 10.1679 6.66667H0.666504V4H10.1679ZM3.50119 17.3333C4.09325 15.033 6.18139 13.3333 8.6665 13.3333C11.612 13.3333 13.9998 15.7211 13.9998 18.6667C13.9998 21.6122 11.612 24 8.6665 24C6.18139 24 4.09325 22.3003 3.50119 20H0.666504V17.3333H3.50119ZM16.6665 20V17.3333H27.3332V20H16.6665ZM8.6665 21.3333C10.1393 21.3333 11.3332 20.1394 11.3332 18.6667C11.3332 17.1939 10.1393 16 8.6665 16C7.19374 16 5.99984 17.1939 5.99984 18.6667C5.99984 20.1394 7.19374 21.3333 8.6665 21.3333ZM23.3332 6.66667V4H27.3332V6.66667H23.3332ZM15.3332 8C16.8059 8 17.9998 6.80609 17.9998 5.33333C17.9998 3.86057 16.8059 2.66667 15.3332 2.66667C13.8604 2.66667 12.6665 3.86057 12.6665 5.33333C12.6665 6.80609 13.8604 8 15.3332 8Z" fill="black"/>
</svg>
